CSE 2441/Project/Overflow/simulation/qsim/Overflow.msim.vcd
$comment
	File created using the following command:
		vcd file Overflow.msim.vcd -direction
$end
$date
	Fri Oct 09 09:28:17 2015
$end
$version
	ModelSim Version 10.1d
$end
$timescale
	1ps
$end
$scope module Overflow_vlg_vec_tst $end
$var reg 1 ! A3 $end
$var reg 1 " B3 $end
$var reg 1 # S3 $end
$var wire 1 $ OVER $end
$var wire 1 % sampler $end
$scope module i1 $end
$var wire 1 & gnd $end
$var wire 1 ' vcc $end
$var wire 1 ( unknown $end
$var tri1 1 ) devclrn $end
$var tri1 1 * devpor $end
$var tri1 1 + devoe $end
$var wire 1 , S3~combout $end
$var wire 1 - A3~combout $end
$var wire 1 . B3~combout $end
$var wire 1 / inst2~combout $end
$upscope $end
$upscope $end
$enddefinitions $end
#0
$dumpvars
0!
0"
0#
0$
x%
0&
1'
x(
1)
1*
1+
0,
0-
0.
0/
$end
#20000
1!
1"
1#
1-
1.
1,
0%
#90000
0!
0"
0#
0-
0.
0,
1%
#140000
1#
1,
0%
1/
1$
#190000
0#
0,
1%
0/
0$
#270000
1!
1"
1-
1.
0%
1/
1$
#360000
0!
0"
0-
0.
1%
0/
0$
#440000
1#
1"
1,
1.
0%
#490000
0#
0"
0,
0.
1%
#560000
1!
1-
0%
#600000
0!
0-
1%
#620000
1"
1.
0%
#660000
0"
0.
1%
