CSE 2441/Project/ALUXOR/simulation/qsim/ALUXOR.msim.vcd
$comment
	File created using the following command:
		vcd file ALUXOR.msim.vcd -direction
$end
$date
	Fri Oct 09 09:57:47 2015
$end
$version
	ModelSim Version 10.1d
$end
$timescale
	1ps
$end
$scope module ALUXOR_vlg_vec_tst $end
$var reg 1 ! A0 $end
$var reg 1 " A1 $end
$var reg 1 # A2 $end
$var reg 1 $ A3 $end
$var reg 1 % B0 $end
$var reg 1 & B1 $end
$var reg 1 ' B2 $end
$var reg 1 ( B3 $end
$var wire 1 ) S0 $end
$var wire 1 * S1 $end
$var wire 1 + S2 $end
$var wire 1 , S3 $end
$var wire 1 - sampler $end
$scope module i1 $end
$var wire 1 . gnd $end
$var wire 1 / vcc $end
$var wire 1 0 unknown $end
$var tri1 1 1 devclrn $end
$var tri1 1 2 devpor $end
$var tri1 1 3 devoe $end
$var wire 1 4 A0~combout $end
$var wire 1 5 B0~combout $end
$var wire 1 6 inst~combout $end
$var wire 1 7 B1~combout $end
$var wire 1 8 A1~combout $end
$var wire 1 9 inst1~combout $end
$var wire 1 : A2~combout $end
$var wire 1 ; B2~combout $end
$var wire 1 < inst2~combout $end
$var wire 1 = A3~combout $end
$var wire 1 > B3~combout $end
$var wire 1 ? inst3~combout $end
$upscope $end
$upscope $end
$enddefinitions $end
#0
$dumpvars
0!
0"
0#
0$
0%
0&
0'
0(
0)
0*
0+
0,
x-
0.
1/
x0
11
12
13
04
05
06
07
08
09
0:
0;
0<
0=
0>
0?
$end
#40000
1!
1"
1#
1$
1%
1&
1'
1(
14
18
1:
1=
15
17
1;
1>
0-
#190000
0!
0"
0#
0$
0%
0&
0'
0(
04
08
0:
0=
05
07
0;
0>
1-
#300000
1!
1"
1#
14
18
1:
0-
16
19
1<
1)
1*
1+
#400000
0!
0"
0#
04
08
0:
1-
06
09
0<
0)
0*
0+
#560000
1%
1&
1!
1"
15
17
14
18
0-
#620000
0%
0&
0!
0"
05
07
04
08
1-
#710000
1$
1#
1!
1"
1=
1:
14
18
0-
1?
1<
16
19
1,
1+
1)
1*
#780000
0$
0#
0!
0"
0=
0:
04
08
1-
0?
0<
06
09
0,
0+
0)
0*
